{
    "prepare_queue": {
        "installed": [],
        "uninstalled": []
    },
    "config_munge": {
        "files": {
            "config.xml": {
                "parents": {
                    "/*": [
                        {
                            "xml": "<feature name=\"InAppBrowser\"><param name=\"ios-package\" value=\"CDVInAppBrowser\" /></feature>",
                            "count": 1
                        },
                        {
                            "xml": "<feature name=\"Notification\"><param name=\"ios-package\" value=\"CDVNotification\" /></feature>",
                            "count": 1
                        }
                    ]
                }
            },
            "framework": {
                "parents": {
                    "AudioToolbox.framework": [
                        {
                            "xml": "true",
                            "count": 1
                        },
                        {
                            "xml": true,
                            "count": 1
                        }
                    ],
                    "CoreGraphics.framework": [
                        {
                            "xml": "false",
                            "count": 1
                        },
                        {
                            "xml": false,
                            "count": 1
                        }
                    ]
                }
            }
        }
    },
    "installed_plugins": {
        "cordova-plugin-inappbrowser": {
            "PACKAGE_NAME": "co.gov.minminas.asesorminminas"
        },
        "cordova-plugin-dialogs": {
            "PACKAGE_NAME": "co.gov.minminas.asesorminminas"
        },
        "cordova-plugin-whitelist": {
            "PACKAGE_NAME": "co.gov.minminas.asesorminminas"
        }
    },
    "dependent_plugins": {}
}